{
    "KPlugin": {
        "Icon": "edit-clear-history",
        "MimeTypes": [
            "application/octet-stream",
            "inode/directory"
        ],
        "Name": "Forget items from Recent Documents and Recent Locations",
        "Name[ar]": "انس العناصر من المستندات والأماكن المستخدمة حديثا",
        "Name[bg]": "Забравяне на елементи от Скорошни документи и Последни местоположения",
        "Name[ca@valencia]": "Oblida els elements dels documents recents i les ubicacions recents",
        "Name[ca]": "Oblida els elements dels documents recents i les ubicacions recents",
        "Name[da]": "Glem elementer fra Nylige dokumenter og Nylige placeringer",
        "Name[de]": "Zuletzt geöffnete Dokumente und verwendete Orte vergessen",
        "Name[en_GB]": "Forget items from Recent Documents and Recent Locations",
        "Name[es]": "Olvidar los elementos de los documentos recientes y de los lugares recientes",
        "Name[eu]": "Ahaztu berriki erabilitako dokumentuak eta kokalekuak",
        "Name[fi]": "Unohdat viimeaikaisten tiedostojen ja sijaintien kohteet",
        "Name[fr]": "Oublier les éléments à partir des documents ou des emplacements récents",
        "Name[ia]": "Oblida elementos ab Documentos Recente e LOcationes Recente",
        "Name[ie]": "Obliviar elementes in li Recent documentes e Recent locs",
        "Name[it]": "Dimentica elementi da Documenti recenti e Posizioni recenti",
        "Name[ka]": "ახლახანს გახსნილი ფაილებისა და მდებარეობების ჩანაწერების წაშლა",
        "Name[ko]": "최근 문서와 최근 위치에서 항목 비우기",
        "Name[nl]": "Items uit recente documenten en recente locaties vergeten",
        "Name[nn]": "Gløym element i nyleg brukte dokument/stadar",
        "Name[pl]": "Zapomnij o rzeczach z ostatnich dokumentów i miejsc",
        "Name[pt]": "Esquecer os itens dos Documentos Recentes e Localizações Recentes",
        "Name[pt_BR]": "Esquecer itens dos documentos e locais recentes",
        "Name[ro]": "Uită elementele din documente recente și locuri recente",
        "Name[ru]": "Очистка списков «Недавние документы» и «Недавние расположения»",
        "Name[sk]": "Zabudnúť položky z Nedávnych dokumentov a Nedávnych umiestnení",
        "Name[sl]": "Pozabi postavke iz Zadnjih dokumentov in Zadnjih lokacij",
        "Name[sv]": "Glöm objekt från senaste dokument och senaste platser",
        "Name[ta]": "சமீபத்திய அவணங்களிலிருந்தும் சமீபத்திய இடங்களிலிருந்தும் இவ்வுருப்படிகளை நீக்கு",
        "Name[tr]": "Son Belgeler ve Son Konumlar'daki ögeleri unut",
        "Name[uk]": "Забути записи з «Недавніх документів» і «Недавніх місць»",
        "Name[vi]": "Quên các thứ trong \"Tài liệu gần đây\" và \"Địa điểm gần đây\"",
        "Name[x-test]": "xxForget items from Recent Documents and Recent Locationsxx",
        "Name[zh_CN]": "忘记最新文档和最近位置中的项目",
        "ServiceTypes": [
            "KFileItemAction/Plugin"
        ]
    },
    "X-KDE-Protocol": "recentlyused",
    "X-KDE-Show-In-Submenu": "true"
}
