{
    "CacheThumbnail": true,
    "KPlugin": {
        "MimeTypes": [
            "audio/*"
        ],
        "Name": "Audio files",
        "Name[ar]": "ملفات صوت",
        "Name[bg]": "Аудио файлове",
        "Name[ca@valencia]": "Fitxers d'àudio",
        "Name[ca]": "Fitxers d'àudio",
        "Name[cs]": "Audio soubory",
        "Name[en_GB]": "Audio files",
        "Name[es]": "Archivos de sonido",
        "Name[eu]": "Audio fitxategiak",
        "Name[fi]": "Äänitiedostot",
        "Name[fr]": "Fichiers audio",
        "Name[ie]": "Audiofiles",
        "Name[it]": "File audio",
        "Name[ka]": "აუდიო ფაილები",
        "Name[ko]": "오디오 파일",
        "Name[nl]": "Geluidsbestanden",
        "Name[nn]": "Lydfiler",
        "Name[pl]": "Pliki dźwiękowe",
        "Name[pt]": "Ficheiros de áudio",
        "Name[pt_BR]": "Arquivos de áudio",
        "Name[ru]": "Звуковые файлы",
        "Name[sl]": "Zvočne datoteke",
        "Name[sv]": "Ljudfiler",
        "Name[ta]": "ஒலிக்கோப்புகள்",
        "Name[tr]": "Ses Dosyaları",
        "Name[uk]": "Звукові файли",
        "Name[vi]": "Tệp âm thanh",
        "Name[x-test]": "xxAudio filesxx",
        "Name[zh_CN]": "音频文件"
    }
}
