{
    "CacheThumbnail": true,
    "KPlugin": {
        "MimeTypes": [
            "application/epub+zip",
            "application/x-fictionbook+xml",
            "application/x-zip-compressed-fb2"
        ],
        "Name": "eBooks",
        "Name[ar]": "كتب إلكترونية",
        "Name[bg]": "Електронни книги",
        "Name[ca@valencia]": "eBooks",
        "Name[ca]": "eBooks",
        "Name[cs]": "eKnihy",
        "Name[en_GB]": "eBooks",
        "Name[es]": "Libros electrónicos",
        "Name[eu]": "eLiburukiak",
        "Name[fi]": "e-kirjat",
        "Name[fr]": "eBooks",
        "Name[ie]": "eLibres",
        "Name[it]": "eBook",
        "Name[ka]": "ელწიგნები",
        "Name[ko]": "전자책",
        "Name[nl]": "eBooks",
        "Name[nn]": "E-bøker",
        "Name[pl]": "eBooki",
        "Name[pt]": "eBooks",
        "Name[pt_BR]": "eBooks",
        "Name[ru]": "Электронные книги",
        "Name[sl]": "elektronske knjige",
        "Name[sv]": "e-böcker",
        "Name[ta]": "மின்புத்தகங்கள்",
        "Name[tr]": "eKitaplar",
        "Name[uk]": "Електронні книги",
        "Name[vi]": "Sách điện tử",
        "Name[x-test]": "xxeBooksxx",
        "Name[zh_CN]": "eBooks 电子书"
    }
}
